<?xml version="1.0" encoding="iso-8859-1"?>
<!-- Generator: Adobe Illustrator 19.0.0, SVG Export Plug-In . SVG Version: 6.00 Build 0)  -->
<svg version="1.1" id="Capa_1" xmlns="http://www.w3.org/2000/svg" xmlns:xlink="http://www.w3.org/1999/xlink" x="0px" y="0px"
	 viewBox="0 0 512 512" style="enable-background:new 0 0 512 512;" xml:space="preserve">
<path style="fill:#DEECF1;" d="M512,226v30l-157.301,30L286,275.799L150,256v-30c0-33.001,27.001-60,60-60h242
	C484.999,166,512,192.999,512,226z"/>
<path style="fill:#C6E2E7;" d="M512,226v30l-157.301,30L286,275.799V166h166C484.999,166,512,192.999,512,226z"/>
<polygon style="fill:#FF7816;" points="452,376 482,346 512,376 512,436 452,436 "/>
<rect x="30" y="256" style="fill:#FF9F00;" width="482" height="120"/>
<rect x="286" y="256" style="fill:#FF7816;" width="226" height="120"/>
<path style="fill:#00ABE9;" d="M150,256H60v-45c0-24.853,20.147-45,45-45l0,0c24.853,0,45,20.147,45,45V256z"/>
<rect y="76" style="fill:#FF9F00;" width="60" height="360"/>
<g>
</g>
<g>
</g>
<g>
</g>
<g>
</g>
<g>
</g>
<g>
</g>
<g>
</g>
<g>
</g>
<g>
</g>
<g>
</g>
<g>
</g>
<g>
</g>
<g>
</g>
<g>
</g>
<g>
</g>
</svg>
